…
This data set, entitled NYC\_data, contains information on NYC Metro Stations entrances and exits, including: name, location, type of entrance, if entrance is permited, whether a metro card could be purchased, and if the station is accessible by persons with disabilities. To render this data set I read it into my R Markdown document while simultaneoulsy restricting the data to the variables of interest and assigning their variable type. The resulting data contains 1,868 rows and 19 columns of data. These data are tidy because there are no categorizations that are columns.

Manipulating Data
-----------------

**Creating a data set that consists of only the NYC stations, not all entrances and exits.**

``` r
NYC_stations = distinct(NYC_data, line, station_name, .keep_all =  TRUE)

NYC_stations
```

    ## # A tibble: 465 x 19
    ##    line  station_name station_latitude station_longitu… route1 route2
    ##    <chr> <chr>                   <dbl>            <dbl> <fct>  <fct> 
    ##  1 4 Av… 25th St                  40.7            -74.0 R      <NA>  
    ##  2 4 Av… 36th St                  40.7            -74.0 N      R     
    ##  3 4 Av… 45th St                  40.6            -74.0 R      <NA>  
    ##  4 4 Av… 53rd St                  40.6            -74.0 R      <NA>  
    ##  5 4 Av… 59th St                  40.6            -74.0 N      R     
    ##  6 4 Av… 77th St                  40.6            -74.0 R      <NA>  
    ##  7 4 Av… 86th St                  40.6            -74.0 R      <NA>  
    ##  8 4 Av… 95th St                  40.6            -74.0 R      <NA>  
    ##  9 4 Av… 9th St                   40.7            -74.0 F      G     
    ## 10 4 Av… Atlantic Av…             40.7            -74.0 B      Q     
    ## # ... with 455 more rows, and 13 more variables: route3 <fct>,
    ## #   route4 <fct>, route5 <fct>, route6 <fct>, route7 <fct>, route8 <fct>,
    ## #   route9 <fct>, route10 <fct>, route11 <fct>, entrance_type <fct>,
    ## #   entry <fct>, vending <fct>, ada <lgl>

There are 465 unique metro stations in this data set.

**Creating a data set for ADA compliance.**

``` r
NYC_ada = filter(NYC_stations, ada == TRUE)

NYC_ada
```

    ## # A tibble: 84 x 19
    ##    line  station_name station_latitude station_longitu… route1 route2
    ##    <chr> <chr>                   <dbl>            <dbl> <fct>  <fct> 
    ##  1 4 Av… Atlantic Av…             40.7            -74.0 B      Q     
    ##  2 4 Av… DeKalb Av                40.7            -74.0 B      Q     
    ##  3 4 Av… Pacific St               40.7            -74.0 B      Q     
    ##  4 42nd… Grand Centr…             40.8            -74.0 GS     4     
    ##  5 6 Av… 34th St                  40.7            -74.0 B      D     
    ##  6 6 Av… 47-50th Sts…             40.8            -74.0 B      D     
    ##  7 6 Av… Church Av                40.6            -74.0 F      <NA>  
    ##  8 63rd… 21st St                  40.8            -73.9 F      <NA>  
    ##  9 63rd… Lexington Av             40.8            -74.0 F      <NA>  
    ## 10 63rd… Roosevelt I…             40.8            -74.0 F      <NA>  
    ## # ... with 74 more rows, and 13 more variables: route3 <fct>,
    ## #   route4 <fct>, route5 <fct>, route6 <fct>, route7 <fct>, route8 <fct>,
    ## #   route9 <fct>, route10 <fct>, route11 <fct>, entrance_type <fct>,
    ## #   entry <fct>, vending <fct>, ada <lgl>

There are 84 metro stations in this data set that are ADA compliant.

**Creating a data set that filters through vending and allowing entry.**

``` r
NYC_vending = NYC_data %>% 
  filter(vending == "NO") %>% 
  filter(entry == "YES")

NYC_vending
```

    ## # A tibble: 69 x 19
    ##    line  station_name station_latitude station_longitu… route1 route2
    ##    <chr> <chr>                   <dbl>            <dbl> <fct>  <fct> 
    ##  1 4 Av… 9th St                   40.7            -74.0 F      G     
    ##  2 6 Av… 7th Av                   40.7            -74.0 F      <NA>  
    ##  3 6 Av… 7th Av                   40.7            -74.0 F      <NA>  
    ##  4 6 Av… 7th Av                   40.7            -74.0 F      <NA>  
    ##  5 6 Av… 7th Av                   40.7            -74.0 F      <NA>  
    ##  6 6 Av… 7th Av                   40.7            -74.0 F      <NA>  
    ##  7 6 Av… 7th Av                   40.7            -74.0 F      <NA>  
    ##  8 6 Av… 7th Av                   40.7            -74.0 F      <NA>  
    ##  9 6 Av… 7th Av                   40.7            -74.0 F      <NA>  
    ## 10 6 Av… Bergen St                40.7            -74.0 F      G     
    ## # ... with 59 more rows, and 13 more variables: route3 <fct>,
    ## #   route4 <fct>, route5 <fct>, route6 <fct>, route7 <fct>, route8 <fct>,
    ## #   route9 <fct>, route10 <fct>, route11 <fct>, entrance_type <fct>,
    ## #   entry <fct>, vending <fct>, ada <lgl>
…
**Creating a data set that rearranges how routes are displayed.**

``` r
NYC_route = gather(NYC_stations, key = route_number, value = route_name, route1:route11) 
```

    ## Warning: attributes are not identical across measure variables;
    ## they will be dropped

``` r
NYC_route
```

    ## # A tibble: 5,115 x 10
    ##    line  station_name station_latitude station_longitu… entrance_type entry
    ##    <chr> <chr>                   <dbl>            <dbl> <fct>         <fct>
    ##  1 4 Av… 25th St                  40.7            -74.0 Stair         YES  
    ##  2 4 Av… 36th St                  40.7            -74.0 Stair         YES  
    ##  3 4 Av… 45th St                  40.6            -74.0 Stair         YES  
    ##  4 4 Av… 53rd St                  40.6            -74.0 Stair         YES  
    ##  5 4 Av… 59th St                  40.6            -74.0 Stair         YES  
    ##  6 4 Av… 77th St                  40.6            -74.0 Stair         YES  
    ##  7 4 Av… 86th St                  40.6            -74.0 Stair         YES  
    ##  8 4 Av… 95th St                  40.6            -74.0 Stair         YES  
    ##  9 4 Av… 9th St                   40.7            -74.0 Stair         YES  
    ## 10 4 Av… Atlantic Av…             40.7            -74.0 Elevator      YES  
    ## # ... with 5,105 more rows, and 4 more variables: vending <fct>,
    ## #   ada <lgl>, route_number <chr>, route_name <chr>

``` r
filter(NYC_route, route_name == "A")
```

    ## # A tibble: 60 x 10
    ##    line  station_name station_latitude station_longitu… entrance_type entry
    ##    <chr> <chr>                   <dbl>            <dbl> <fct>         <fct>
    ##  1 42nd… Times Square             40.8            -74.0 Stair         YES  
    ##  2 8 Av… 125th St                 40.8            -74.0 Stair         YES  
    ##  3 8 Av… 145th St                 40.8            -73.9 Stair         YES  
    ##  4 8 Av… 14th St                  40.7            -74.0 Easement      YES  
    ##  5 8 Av… 168th St - …             40.8            -73.9 Stair         YES  
    ##  6 8 Av… 175th St                 40.8            -73.9 Elevator      YES  
    ##  7 8 Av… 181st St                 40.9            -73.9 Door          YES  
    ##  8 8 Av… 190th St                 40.9            -73.9 Door          YES  
    ##  9 8 Av… 34th St                  40.8            -74.0 Elevator      YES  
    ## 10 8 Av… 42nd St                  40.8            -74.0 Easement      YES  
    ## # ... with 50 more rows, and 4 more variables: vending <fct>, ada <lgl>,
    ## #   route_number <chr>, route_name <chr>
…
